{"count":348,"next":"https://ll.thespacedevs.com/2.0.0/launch/upcoming/?limit=10&offset=10","previous":null,"results":[{"id":"a99bb1eb-514b-4a93-ac49-5e14f273f250","url":"https://ll.thespacedevs.com/2.0.0/launch/a99bb1eb-514b-4a93-ac49-5e14f273f250/","launch_library_id":null,"slug":"falcon-9-block-5-starlink-group-10-59","name":"Falcon 9 Block 5 | Starlink Group 10-59","status":{"id":1,"name":"Go"},"net":"2025-10-07T04:13:40Z","window_end":"2025-10-07T08:10:00Z","window_start":"2025-10-07T04:10:00Z","inhold":false,"tbdtime":false,"tbddate":false,"probability":65,"holdreason":"","failreason":"","hashtag":null,"launch_service_provider":{"id":121,"url":"https://ll.thespacedevs.com/2.0.0/agencies/121/","name":"SpaceX","type":"Commercial"},"rocket":{"id":8724,"configuration":{"id":164,"launch_library_id":188,"url":"https://ll.thespacedevs.com/2.0.0/config/launcher/164/","name":"Falcon 9","family":"Falcon","full_name":"Falcon 9 Block 5","variant":"Block 5"}},"mission":{"id":7315,"launch_library_id":null,"name":"Starlink Group 10-59","description":"A batch of 28 satellites for the Starlink mega-constellation - SpaceX's project for space-based Internet communication system.","launch_designator":null,"type":"Communications","orbit":{"id":8,"name":"Low Earth Orbit","abbrev":"LEO"}},"pad":{"id":80,"url":"https://ll.thespacedevs.com/2.0.0/pad/80/","agency_id":121,"name":"Space Launch Complex 40","info_url":null,"wiki_url":"https://en.wikipedia.org/wiki/Cape_Canaveral_Air_Force_Station_Space_Launch_Complex_40","map_url":"https://www.google.com/maps?q=28.56194122,-80.57735736","latitude":"28.56194122","longitude":"-80.57735736","location":{"id":12,"url":"https://ll.thespacedevs.com/2.0.0/location/12/","name":"Cape Canaveral SFS, FL, USA","country_code":"USA","map_image":"https://thespacedevs-prod.nyc3.digitaloceanspaces.com/media/map_images/location_12_20200803142519.jpg","total_launch_count":1056,"total_landing_count":68},"map_image":"https://thespacedevs-prod.nyc3.digitaloceanspaces.com/media/map_images/pad_80_20200803143323.jpg","total_launch_count":337},"webcast_live":false,"image":"https://thespacedevs-prod.nyc3.digitaloceanspaces.com/media/images/falcon2520925_image_20221009234147.png","infographic":null,"program":[{"id":25,"url":"https://ll.thespacedevs.com/2.0.0/program/25/","name":"Starlink","description":"Starlink is a satellite internet constellation operated by American aerospace company SpaceX","agencies":[{"id":121,"url":"https://ll.thespacedevs.com/2.0.0/agencies/121/","name":"SpaceX","type":"Commercial"}],"image_url":"https://thespacedevs-prod.nyc3.digitaloceanspaces.com/media/images/starlink_program_20231228154508.jpeg","start_date":"2018-02-22T14:17:00Z","end_date":null,"info_url":"https://starlink.com","wiki_url":"https://en.wikipedia.org/wiki/Starlink"}]},{"id":"6f3212c1-3f70-42d9-9280-1d9c2832e264","url":"https://ll.thespacedevs.com/2.0.0/launch/6f3212c1-3f70-42d9-9280-1d9c2832e264/","launch_library_id":null,"slug":"falcon-9-block-5-starlink-group-11-17","name":"Falcon 9 Block 5 | Starlink Group 11-17","status":{"id":1,"name":"Go"},"net":"2025-10-08T01:00:00Z","window_end":"2025-10-08T05:00:00Z","window_start":"2025-10-08T01:00:00Z","inhold":false,"tbdtime":false,"tbddate":false,"probability":null,"holdreason":"","failreason":"","hashtag":null,"launch_service_provider":{"id":121,"url":"https://ll.thespacedevs.com/2.0.0/agencies/121/","name":"SpaceX","type":"Commercial"},"rocket":{"id":8733,"configuration":{"id":164,"launch_library_id":188,"url":"https://ll.thespacedevs.com/2.0.0/config/launcher/164/","name":"Falcon 9","family":"Falcon","full_name":"Falcon 9 Block 5","variant":"Block 5"}},"mission":{"id":7324,"launch_library_id":null,"name":"Starlink Group 11-17","description":"A batch of 28 satellites for the Starlink mega-constellation - SpaceX's project for space-based Internet communication system.","launch_designator":null,"type":"Communications","orbit":{"id":8,"name":"Low Earth Orbit","abbrev":"LEO"}},"pad":{"id":16,"url":"https://ll.thespacedevs.com/2.0.0/pad/16/","agency_id":null,"name":"Space Launch Complex 4E","info_url":null,"wiki_url":"https://en.wikipedia.org/wiki/Vandenberg_Space_Launch_Complex_4#SLC-4E","map_url":"https://www.google.com/maps?q=34.632,-120.611","latitude":"34.632","longitude":"-120.611","location":{"id":11,"url":"https://ll.thespacedevs.com/2.0.0/location/11/","name":"Vandenberg SFB, CA, USA","country_code":"USA","map_image":"https://thespacedevs-prod.nyc3.digitaloceanspaces.com/media/map_images/location_11_20200803142416.jpg","total_launch_count":835,"total_landing_count":29},"map_image":"https://thespacedevs-prod.nyc3.digitaloceanspaces.com/media/map_images/pad_16_20200803143532.jpg","total_launch_count":221},"webcast_live":false,"image":"https://thespacedevs-prod.nyc3.digitaloceanspaces.com/media/images/falcon2520925_image_20221009234147.png","infographic":null,"program":[{"id":25,"url":"https://ll.thespacedevs.com/2.0.0/program/25/","name":"Starlink","description":"Starlink is a satellite internet constellation operated by American aerospace company SpaceX","agencies":[{"id":121,"url":"https://ll.thespacedevs.com/2.0.0/agencies/121/","name":"SpaceX","type":"Commercial"}],"image_url":"https://thespacedevs-prod.nyc3.digitaloceanspaces.com/media/images/starlink_program_20231228154508.jpeg","start_date":"2018-02-22T14:17:00Z","end_date":null,"info_url":"https://starlink.com","wiki_url":"https://en.wikipedia.org/wiki/Starlink"}]},{"id":"a7d60abb-c22d-41fe-9c17-35dbdd7f8029","url":"https://ll.thespacedevs.com/2.0.0/launch/a7d60abb-c22d-41fe-9c17-35dbdd7f8029/","launch_library_id":null,"slug":"new-shepard-ns-36","name":"New Shepard | NS-36","status":{"id":1,"name":"Go"},"net":"2025-10-08T13:00:00Z","window_end":"2025-10-08T20:30:00Z","window_start":"2025-10-08T12:30:00Z","inhold":false,"tbdtime":false,"tbddate":false,"probability":null,"holdreason":"","failreason":"","hashtag":null,"launch_service_provider":{"id":141,"url":"https://ll.thespacedevs.com/2.0.0/agencies/141/","name":"Blue Origin","type":"Commercial"},"rocket":{"id":8730,"configuration":{"id":137,"launch_library_id":9999,"url":"https://ll.thespacedevs.com/2.0.0/config/launcher/137/","name":"New Shepard","family":"","full_name":"New Shepard","variant":""}},"mission":{"id":7321,"launch_library_id":null,"name":"NS-36","description":"NS-36 is the 15th crewed flight for the New Shepard program and the 36th in the New Shepard program's history.","launch_designator":null,"type":"Tourism","orbit":{"id":15,"name":"Suborbital","abbrev":"Sub"}},"pad":{"id":90,"url":"https://ll.thespacedevs.com/2.0.0/pad/90/","agency_id":141,"name":"West Texas Suborbital Launch Site/ Corn Ranch","info_url":"https://www.blueorigin.com","wiki_url":"https://en.wikipedia.org/wiki/Corn_Ranch","map_url":"https://www.google.com/maps?q=31.422878000000000,-104.757121000000000","latitude":"31.422878","longitude":"-104.757121","location":{"id":29,"url":"https://ll.thespacedevs.com/2.0.0/location/29/","name":"Corn Ranch, Van Horn, TX, USA","country_code":"USA","map_image":"https://thespacedevs-prod.nyc3.digitaloceanspaces.com/media/map_images/location_29_20200803142436.jpg","total_launch_count":35,"total_landing_count":35},"map_image":"https://thespacedevs-prod.nyc3.digitaloceanspaces.com/media/map_images/pad_90_20200803143233.jpg","total_launch_count":35},"webcast_live":false,"image":"https://thespacedevs-prod.nyc3.digitaloceanspaces.com/media/images/new_shepard_lif_image_20240621062033.jpeg","infographic":null,"program":[]},{"id":"88d03398-af55-4bca-967e-bfe868a3cbf5","url":"https://ll.thespacedevs.com/2.0.0/launch/88d03398-af55-4bca-967e-bfe868a3cbf5/","launch_library_id":null,"slug":"falcon-9-block-5-project-kuiper-kf-03","name":"Falcon 9 Block 5 | Project Kuiper (KF-03)","status":{"id":1,"name":"Go"},"net":"2025-10-10T01:34:00Z","window_end":"2025-10-10T03:48:00Z","window_start":"2025-10-10T01:34:00Z","inhold":false,"tbdtime":false,"tbddate":false,"probability":null,"holdreason":"","failreason":"","hashtag":null,"launch_service_provider":{"id":121,"url":"https://ll.thespacedevs.com/2.0.0/agencies/121/","name":"SpaceX","type":"Commercial"},"rocket":{"id":8113,"configuration":{"id":164,"launch_library_id":188,"url":"https://ll.thespacedevs.com/2.0.0/config/launcher/164/","name":"Falcon 9","family":"Falcon","full_name":"Falcon 9 Block 5","variant":"Block 5"}},"mission":{"id":6671,"launch_library_id":null,"name":"Project Kuiper (KF-03)","description":"Third of a three launches contract for Amazon's Kuiper low Earth orbit satellite internet constellation, with 24 satellites on board.","launch_designator":null,"type":"Communications","orbit":{"id":8,"name":"Low Earth Orbit","abbrev":"LEO"}},"pad":{"id":80,"url":"https://ll.thespacedevs.com/2.0.0/pad/80/","agency_id":121,"name":"Space Launch Complex 40","info_url":null,"wiki_url":"https://en.wikipedia.org/wiki/Cape_Canaveral_Air_Force_Station_Space_Launch_Complex_40","map_url":"https://www.google.com/maps?q=28.56194122,-80.57735736","latitude":"28.56194122","longitude":"-80.57735736","location":{"id":12,"url":"https://ll.thespacedevs.com/2.0.0/location/12/","name":"Cape Canaveral SFS, FL, USA","country_code":"USA","map_image":"https://thespacedevs-prod.nyc3.digitaloceanspaces.com/media/map_images/location_12_20200803142519.jpg","total_launch_count":1056,"total_landing_count":68},"map_image":"https://thespacedevs-prod.nyc3.digitaloceanspaces.com/media/map_images/pad_80_20200803143323.jpg","total_launch_count":337},"webcast_live":false,"image":"https://thespacedevs-prod.nyc3.digitaloceanspaces.com/media/images/falcon_9_image_20230807133459.jpeg","infographic":null,"program":[{"id":27,"url":"https://ll.thespacedevs.com/2.0.0/program/27/","name":"Project Kuiper","description":"Amazon's Kuiper Project is a satellite internet initiative aimed at providing high-speed, low-latency broadband connectivity to underserved and remote areas globally. The project involves deploying a constellation of low Earth orbit (LEO) satellites to create a satellite internet network capable of delivering reliable internet access.","agencies":[{"id":1058,"url":"https://ll.thespacedevs.com/2.0.0/agencies/1058/","name":"Kuiper Systems LLC","type":"Private"}],"image_url":"https://thespacedevs-prod.nyc3.digitaloceanspaces.com/media/images/project2520kui_program_20231228165031.jpeg","start_date":"2023-10-16T18:06:00Z","end_date":null,"info_url":"https://en.wikipedia.org/wiki/Kuiper_Systems","wiki_url":"http://aboutamazon.com/what-we-do/devices-services/project-kuiper"}]},{"id":"02348ca1-d937-441b-86fe-5002275907db","url":"https://ll.thespacedevs.com/2.0.0/launch/02348ca1-d937-441b-86fe-5002275907db/","launch_library_id":null,"slug":"falcon-9-block-5-starlink-group-10-52","name":"Falcon 9 Block 5 | Starlink Group 10-52","status":{"id":1,"name":"Go"},"net":"2025-10-12T08:11:00Z","window_end":"2025-10-12T12:11:00Z","window_start":"2025-10-12T08:11:00Z","inhold":false,"tbdtime":false,"tbddate":false,"probability":null,"holdreason":"","failreason":"","hashtag":null,"launch_service_provider":{"id":121,"url":"https://ll.thespacedevs.com/2.0.0/agencies/121/","name":"SpaceX","type":"Commercial"},"rocket":{"id":8732,"configuration":{"id":164,"launch_library_id":188,"url":"https://ll.thespacedevs.com/2.0.0/config/launcher/164/","name":"Falcon 9","family":"Falcon","full_name":"Falcon 9 Block 5","variant":"Block 5"}},"mission":{"id":7323,"launch_library_id":null,"name":"Starlink Group 10-52","description":"A batch of 28 satellites for the Starlink mega-constellation - SpaceX's project for space-based Internet communication system.","launch_designator":null,"type":"Communications","orbit":{"id":8,"name":"Low Earth Orbit","abbrev":"LEO"}},"pad":{"id":80,"url":"https://ll.thespacedevs.com/2.0.0/pad/80/","agency_id":121,"name":"Space Launch Complex 40","info_url":null,"wiki_url":"https://en.wikipedia.org/wiki/Cape_Canaveral_Air_Force_Station_Space_Launch_Complex_40","map_url":"https://www.google.com/maps?q=28.56194122,-80.57735736","latitude":"28.56194122","longitude":"-80.57735736","location":{"id":12,"url":"https://ll.thespacedevs.com/2.0.0/location/12/","name":"Cape Canaveral SFS, FL, USA","country_code":"USA","map_image":"https://thespacedevs-prod.nyc3.digitaloceanspaces.com/media/map_images/location_12_20200803142519.jpg","total_launch_count":1056,"total_landing_count":68},"map_image":"https://thespacedevs-prod.nyc3.digitaloceanspaces.com/media/map_images/pad_80_20200803143323.jpg","total_launch_count":337},"webcast_live":false,"image":"https://thespacedevs-prod.nyc3.digitaloceanspaces.com/media/images/falcon2520925_image_20221009234147.png","infographic":null,"program":[{"id":25,"url":"https://ll.thespacedevs.com/2.0.0/program/25/","name":"Starlink","description":"Starlink is a satellite internet constellation operated by American aerospace company SpaceX","agencies":[{"id":121,"url":"https://ll.thespacedevs.com/2.0.0/agencies/121/","name":"SpaceX","type":"Commercial"}],"image_url":"https://thespacedevs-prod.nyc3.digitaloceanspaces.com/media/images/starlink_program_20231228154508.jpeg","start_date":"2018-02-22T14:17:00Z","end_date":null,"info_url":"https://starlink.com","wiki_url":"https://en.wikipedia.org/wiki/Starlink"}]},{"id":"0d2920f2-87d9-4c5a-aebe-614d8baae2a2","url":"https://ll.thespacedevs.com/2.0.0/launch/0d2920f2-87d9-4c5a-aebe-614d8baae2a2/","launch_library_id":null,"slug":"falcon-9-block-5-starlink-group-11-19","name":"Falcon 9 Block 5 | Starlink Group 11-19","status":{"id":2,"name":"TBD"},"net":"2025-10-12T19:59:00Z","window_end":"2025-10-12T23:59:00Z","window_start":"2025-10-12T19:59:00Z","inhold":false,"tbdtime":false,"tbddate":false,"probability":null,"holdreason":"","failreason":"","hashtag":null,"launch_service_provider":{"id":121,"url":"https://ll.thespacedevs.com/2.0.0/agencies/121/","name":"SpaceX","type":"Commercial"},"rocket":{"id":8746,"configuration":{"id":164,"launch_library_id":188,"url":"https://ll.thespacedevs.com/2.0.0/config/launcher/164/","name":"Falcon 9","family":"Falcon","full_name":"Falcon 9 Block 5","variant":"Block 5"}},"mission":{"id":7337,"launch_library_id":null,"name":"Starlink Group 11-19","description":"A batch of satellites for the Starlink mega-constellation - SpaceX's project for space-based Internet communication system.","launch_designator":null,"type":"Communications","orbit":{"id":8,"name":"Low Earth Orbit","abbrev":"LEO"}},"pad":{"id":16,"url":"https://ll.thespacedevs.com/2.0.0/pad/16/","agency_id":null,"name":"Space Launch Complex 4E","info_url":null,"wiki_url":"https://en.wikipedia.org/wiki/Vandenberg_Space_Launch_Complex_4#SLC-4E","map_url":"https://www.google.com/maps?q=34.632,-120.611","latitude":"34.632","longitude":"-120.611","location":{"id":11,"url":"https://ll.thespacedevs.com/2.0.0/location/11/","name":"Vandenberg SFB, CA, USA","country_code":"USA","map_image":"https://thespacedevs-prod.nyc3.digitaloceanspaces.com/media/map_images/location_11_20200803142416.jpg","total_launch_count":835,"total_landing_count":29},"map_image":"https://thespacedevs-prod.nyc3.digitaloceanspaces.com/media/map_images/pad_16_20200803143532.jpg","total_launch_count":221},"webcast_live":false,"image":"https://thespacedevs-prod.nyc3.digitaloceanspaces.com/media/images/falcon2520925_image_20221009234147.png","infographic":null,"program":[{"id":25,"url":"https://ll.thespacedevs.com/2.0.0/program/25/","name":"Starlink","description":"Starlink is a satellite internet constellation operated by American aerospace company SpaceX","agencies":[{"id":121,"url":"https://ll.thespacedevs.com/2.0.0/agencies/121/","name":"SpaceX","type":"Commercial"}],"image_url":"https://thespacedevs-prod.nyc3.digitaloceanspaces.com/media/images/starlink_program_20231228154508.jpeg","start_date":"2018-02-22T14:17:00Z","end_date":null,"info_url":"https://starlink.com","wiki_url":"https://en.wikipedia.org/wiki/Starlink"}]},{"id":"41068e09-4097-448f-ac7c-421c19b6aab9","url":"https://ll.thespacedevs.com/2.0.0/launch/41068e09-4097-448f-ac7c-421c19b6aab9/","launch_library_id":null,"slug":"starship-flight-11","name":"Starship | Flight 11","status":{"id":1,"name":"Go"},"net":"2025-10-13T23:15:00Z","window_end":"2025-10-14T00:15:00Z","window_start":"2025-10-13T23:15:00Z","inhold":false,"tbdtime":false,"tbddate":false,"probability":null,"holdreason":"","failreason":"","hashtag":null,"launch_service_provider":{"id":121,"url":"https://ll.thespacedevs.com/2.0.0/agencies/121/","name":"SpaceX","type":"Commercial"},"rocket":{"id":8696,"configuration":{"id":464,"launch_library_id":null,"url":"https://ll.thespacedevs.com/2.0.0/config/launcher/464/","name":"Starship","family":"Starship","full_name":"Starship","variant":""}},"mission":{"id":7288,"launch_library_id":null,"name":"Flight 11","description":"11th test flight of the two-stage Starship launch vehicle.","launch_designator":null,"type":"Test Flight","orbit":{"id":15,"name":"Suborbital","abbrev":"Sub"}},"pad":{"id":188,"url":"https://ll.thespacedevs.com/2.0.0/pad/188/","agency_id":121,"name":"Orbital Launch Pad 1","info_url":null,"wiki_url":"https://en.wikipedia.org/wiki/SpaceX_Starbase#Launch_site_(Orbital_Launch_Mount_(Pad_1_and_2))","map_url":"https://www.google.com/maps?q=25.9962,-97.154423","latitude":"25.9962","longitude":"-97.154423","location":{"id":143,"url":"https://ll.thespacedevs.com/2.0.0/location/143/","name":"SpaceX Starbase, TX, USA","country_code":"USA","map_image":"https://thespacedevs-prod.nyc3.digitaloceanspaces.com/media/map_images/location_143_20200803142438.jpg","total_launch_count":19,"total_landing_count":13},"map_image":"https://thespacedevs-prod.nyc3.digitaloceanspaces.com/media/map_images/pad_orbital_launch_mount_a_20210514061342.jpg","total_launch_count":10},"webcast_live":false,"image":"https://thespacedevs-prod.nyc3.digitaloceanspaces.com/media/images/starship_on_the_image_20250111100520.jpg","infographic":null,"program":[{"id":1,"url":"https://ll.thespacedevs.com/2.0.0/program/1/","name":"SpaceX Starship","description":"The SpaceX Starship is a fully reusable super heavy-lift launch vehicle under development by SpaceX since 2012, as a self-funded private spaceflight project.  The second stage of the Starship — is designed as a long-duration cargo and passenger-carrying spacecraft. It is expected to be initially used without any booster stage at all, as part of an extensive development program to prove out launch-and-landing and iterate on a variety of design details, particularly with respect to the vehicle's atmospheric reentry.","agencies":[{"id":121,"url":"https://ll.thespacedevs.com/2.0.0/agencies/121/","name":"SpaceX","type":"Commercial"}],"image_url":"https://thespacedevs-prod.nyc3.digitaloceanspaces.com/media/images/spacex2520star_program_20201129204513.png","start_date":"2019-03-01T05:00:00Z","end_date":null,"info_url":"https://www.spacex.com/vehicles/starship/","wiki_url":"https://en.wikipedia.org/wiki/SpaceX_Starship"}]},{"id":"66172ee0-3d02-4640-a802-55025a51172d","url":"https://ll.thespacedevs.com/2.0.0/launch/66172ee0-3d02-4640-a802-55025a51172d/","launch_library_id":null,"slug":"electron-owl-new-world-strix-launch-7","name":"Electron | Owl New World (StriX Launch 7)","status":{"id":1,"name":"Go"},"net":"2025-10-14T16:30:00Z","window_end":"2025-10-14T16:30:00Z","window_start":"2025-10-14T16:30:00Z","inhold":false,"tbdtime":false,"tbddate":false,"probability":null,"holdreason":"","failreason":"","hashtag":null,"launch_service_provider":{"id":147,"url":"https://ll.thespacedevs.com/2.0.0/agencies/147/","name":"Rocket Lab","type":"Commercial"},"rocket":{"id":8263,"configuration":{"id":26,"launch_library_id":148,"url":"https://ll.thespacedevs.com/2.0.0/config/launcher/26/","name":"Electron","family":"","full_name":"Electron","variant":""}},"mission":{"id":6844,"launch_library_id":null,"name":"Owl New World (StriX Launch 7)","description":"Synthetic aperture radar satellite for Japanese Earth imaging company Synspective.","launch_designator":null,"type":"Earth Science","orbit":{"id":8,"name":"Low Earth Orbit","abbrev":"LEO"}},"pad":{"id":65,"url":"https://ll.thespacedevs.com/2.0.0/pad/65/","agency_id":147,"name":"Rocket Lab Launch Complex 1A","info_url":null,"wiki_url":"https://en.wikipedia.org/wiki/Rocket_Lab_Launch_Complex_1","map_url":"https://www.google.com/maps?q=-39.262833,177.864469","latitude":"-39.262833","longitude":"177.864469","location":{"id":10,"url":"https://ll.thespacedevs.com/2.0.0/location/10/","name":"Rocket Lab Launch Complex 1, Mahia Peninsula, New Zealand","country_code":"NZL","map_image":"https://thespacedevs-prod.nyc3.digitaloceanspaces.com/media/map_images/location_10_20200803142509.jpg","total_launch_count":64,"total_landing_count":17},"map_image":"https://thespacedevs-prod.nyc3.digitaloceanspaces.com/media/map_images/pad_65_20200803143549.jpg","total_launch_count":33},"webcast_live":false,"image":"https://thespacedevs-prod.nyc3.digitaloceanspaces.com/media/images/electron_image_20190705175640.jpeg","infographic":null,"program":[]},{"id":"4b42add0-3da7-4ae7-b830-f8a1aa8dda85","url":"https://ll.thespacedevs.com/2.0.0/launch/4b42add0-3da7-4ae7-b830-f8a1aa8dda85/","launch_library_id":null,"slug":"falcon-9-block-5-sda-tranche-1-transport-layer-c","name":"Falcon 9 Block 5 | SDA Tranche 1 Transport Layer C","status":{"id":1,"name":"Go"},"net":"2025-10-14T23:11:00Z","window_end":"2025-10-14T23:11:00Z","window_start":"2025-10-14T23:11:00Z","inhold":false,"tbdtime":false,"tbddate":false,"probability":null,"holdreason":"","failreason":"","hashtag":null,"launch_service_provider":{"id":121,"url":"https://ll.thespacedevs.com/2.0.0/agencies/121/","name":"SpaceX","type":"Commercial"},"rocket":{"id":7893,"configuration":{"id":164,"launch_library_id":188,"url":"https://ll.thespacedevs.com/2.0.0/config/launcher/164/","name":"Falcon 9","family":"Falcon","full_name":"Falcon 9 Block 5","variant":"Block 5"}},"mission":{"id":6402,"launch_library_id":null,"name":"SDA Tranche 1 Transport Layer C","description":"Tranche 1 Transport Layer C is one of six missions by the United States Space Force Space Development Agency (SDA) for the Proliferated Warfighter Space Architecture (PWSA) Tranche 1 Transport Layer constellation, which will provide assured, resilient, low-latency military data and connectivity worldwide to the full range of warfighter platforms from Low Earth Orbit satellites.\r\n\r\nThe constellation will be interconnected with Optical Inter-Satellite Links (OISLs) which have significantly increased performance over existing radio frequency crosslinks. It is expected to operate over Ka band, have stereo coverage and be dynamically networked for simpler hand-offs, greater bandwidth and fault tolerance.\r\n\r\nThis launch carries 21 satellites manufactured by Lockheed Martin.","launch_designator":null,"type":"Government/Top Secret","orbit":{"id":13,"name":"Polar Orbit","abbrev":"PO"}},"pad":{"id":16,"url":"https://ll.thespacedevs.com/2.0.0/pad/16/","agency_id":null,"name":"Space Launch Complex 4E","info_url":null,"wiki_url":"https://en.wikipedia.org/wiki/Vandenberg_Space_Launch_Complex_4#SLC-4E","map_url":"https://www.google.com/maps?q=34.632,-120.611","latitude":"34.632","longitude":"-120.611","location":{"id":11,"url":"https://ll.thespacedevs.com/2.0.0/location/11/","name":"Vandenberg SFB, CA, USA","country_code":"USA","map_image":"https://thespacedevs-prod.nyc3.digitaloceanspaces.com/media/map_images/location_11_20200803142416.jpg","total_launch_count":835,"total_landing_count":29},"map_image":"https://thespacedevs-prod.nyc3.digitaloceanspaces.com/media/map_images/pad_16_20200803143532.jpg","total_launch_count":221},"webcast_live":false,"image":"https://thespacedevs-prod.nyc3.digitaloceanspaces.com/media/images/falcon_9_image_20230807133459.jpeg","infographic":null,"program":[]},{"id":"ed145de1-b768-43b5-8563-18ebc93b69b5","url":"https://ll.thespacedevs.com/2.0.0/launch/ed145de1-b768-43b5-8563-18ebc93b69b5/","launch_library_id":null,"slug":"falcon-9-block-5-starlink-group-10-17","name":"Falcon 9 Block 5 | Starlink Group 10-17","status":{"id":1,"name":"Go"},"net":"2025-10-15T16:21:00Z","window_end":"2025-10-15T20:21:00Z","window_start":"2025-10-15T16:21:00Z","inhold":false,"tbdtime":false,"tbddate":false,"probability":null,"holdreason":"","failreason":"","hashtag":null,"launch_service_provider":{"id":121,"url":"https://ll.thespacedevs.com/2.0.0/agencies/121/","name":"SpaceX","type":"Commercial"},"rocket":{"id":8747,"configuration":{"id":164,"launch_library_id":188,"url":"https://ll.thespacedevs.com/2.0.0/config/launcher/164/","name":"Falcon 9","family":"Falcon","full_name":"Falcon 9 Block 5","variant":"Block 5"}},"mission":{"id":7338,"launch_library_id":null,"name":"Starlink Group 10-17","description":"A batch of 28 satellites for the Starlink mega-constellation - SpaceX's project for space-based Internet communication system.","launch_designator":null,"type":"Communications","orbit":{"id":8,"name":"Low Earth Orbit","abbrev":"LEO"}},"pad":{"id":80,"url":"https://ll.thespacedevs.com/2.0.0/pad/80/","agency_id":121,"name":"Space Launch Complex 40","info_url":null,"wiki_url":"https://en.wikipedia.org/wiki/Cape_Canaveral_Air_Force_Station_Space_Launch_Complex_40","map_url":"https://www.google.com/maps?q=28.56194122,-80.57735736","latitude":"28.56194122","longitude":"-80.57735736","location":{"id":12,"url":"https://ll.thespacedevs.com/2.0.0/location/12/","name":"Cape Canaveral SFS, FL, USA","country_code":"USA","map_image":"https://thespacedevs-prod.nyc3.digitaloceanspaces.com/media/map_images/location_12_20200803142519.jpg","total_launch_count":1056,"total_landing_count":68},"map_image":"https://thespacedevs-prod.nyc3.digitaloceanspaces.com/media/map_images/pad_80_20200803143323.jpg","total_launch_count":337},"webcast_live":false,"image":"https://thespacedevs-prod.nyc3.digitaloceanspaces.com/media/images/falcon2520925_image_20221009234147.png","infographic":null,"program":[{"id":25,"url":"https://ll.thespacedevs.com/2.0.0/program/25/","name":"Starlink","description":"Starlink is a satellite internet constellation operated by American aerospace company SpaceX","agencies":[{"id":121,"url":"https://ll.thespacedevs.com/2.0.0/agencies/121/","name":"SpaceX","type":"Commercial"}],"image_url":"https://thespacedevs-prod.nyc3.digitaloceanspaces.com/media/images/starlink_program_20231228154508.jpeg","start_date":"2018-02-22T14:17:00Z","end_date":null,"info_url":"https://starlink.com","wiki_url":"https://en.wikipedia.org/wiki/Starlink"}]}]}